<svg width="55" height="55" viewBox="0 0 55 55" fill="none" xmlns="http://www.w3.org/2000/svg">
<rect width="7.74389" height="30.9756" transform="translate(8.45898) scale(-1 1)" fill="white"/>
<rect width="7.74389" height="30.9756" transform="translate(31.6895 30.9756) scale(-1 1) rotate(-90)" fill="white"/>
<rect width="7.74389" height="30.9756" transform="translate(23.9473 54.207) scale(1 -1)" fill="white"/>
<rect width="7.74389" height="30.9756" transform="translate(23.9473 46.4629) scale(1 -1) rotate(-90)" fill="white"/>
</svg>
