<svg xmlns="http://www.w3.org/2000/svg" width="429" height="66" viewBox="0 0 429 66">
  <metadata><?xpacket begin="﻿" id="W5M0MpCehiHzreSzNTczkc9d"?>
<x:xmpmeta xmlns:x="adobe:ns:meta/" x:xmptk="Adobe XMP Core 5.6-c138 79.159824, 2016/09/14-01:09:01        ">
   <rdf:RDF xmlns:rdf="http://www.w3.org/1999/02/22-rdf-syntax-ns#">
      <rdf:Description rdf:about=""/>
   </rdf:RDF>
</x:xmpmeta>
                                                                                                                            
<?xpacket end="w"?></metadata>
<defs>
    <style>
      .cls-1 {
        fill: #fff;
        fill-rule: evenodd;
      }
    </style>
  </defs>
  <path id="Фигура_1" data-name="Фигура 1" class="cls-1" d="M25.884,13.827v10.4A15.681,15.681,0,1,1,10.322,39.909c0-.072.01-0.142,0.011-0.213H0C0,39.768,0,39.838,0,39.909A25.886,25.886,0,1,0,25.884,13.827Zm-15.562,10.4H0V0.005H10.322V24.229ZM91.39,43.906c0,3.516-2.617,5.813-6.614,5.813h-8.3V29.868h7.768c3.912,0,6.5,2.127,6.5,5.644a4.81,4.81,0,0,1-1.829,3.942A4.984,4.984,0,0,1,91.39,43.906Zm-9.878-9.5v3.12H84.1a1.5,1.5,0,0,0,1.6-1.56,1.512,1.512,0,0,0-1.6-1.56H81.512Zm4.84,9.1a1.6,1.6,0,0,0-1.716-1.673H81.512v3.346h3.124A1.632,1.632,0,0,0,86.352,43.509ZM98.463,29.868V49.719H93.425V29.868h5.038Zm16.61,4.907h-4.868V49.719h-5.039V34.775H100.3V29.868h14.775v4.907Zm0.093,5.019a10.055,10.055,0,0,1,10.273-10.351,9.887,9.887,0,0,1,8.527,4.707L129.6,36.674a4.591,4.591,0,0,0-4.165-2.269,5.05,5.05,0,0,0-5.263,5.388,5.05,5.05,0,0,0,5.263,5.388,4.558,4.558,0,0,0,4.165-2.3l4.362,2.553a9.851,9.851,0,0,1-8.527,4.707A10.055,10.055,0,0,1,115.166,39.793Zm19.4,0A10.329,10.329,0,1,1,144.9,50.144,10.236,10.236,0,0,1,134.568,39.793Zm15.648,0a5.32,5.32,0,1,0-10.639,0A5.32,5.32,0,1,0,150.216,39.793Zm12.4-9.926V49.719h-5.038V29.868h5.038Zm18.973,0V49.719H177.7l-6.952-9.982v9.982h-5.038V29.868h3.912l6.951,9.982V29.868h5.01Zm29.622,19.852H206.2V39.028L201.413,47h-0.507l-4.756-7.941V49.719h-5.039V29.868h5.039l5.009,8.479,5.037-8.479h5.011V49.719Zm14.309-2.864h-6.557l-0.845,2.864h-5.46l6.5-19.852h6.136l6.5,19.852h-5.432Zm-1.294-4.367-2-6.75-1.969,6.75h3.968Zm15.857,0.822h-1.8v6.409h-5.039V29.868h7.88a6.8,6.8,0,0,1,7.093,6.863,6.409,6.409,0,0,1-3.349,5.643l4.053,7.345h-5.4ZM238.278,39h2.785a2.04,2.04,0,0,0,2.111-2.211,2.1,2.1,0,0,0-2.111-2.241h-2.785V39Zm23.116,10.72-5.657-8.876v8.876H250.7V29.868h5.038v8.338l5.375-8.338h5.63l-6.249,9.643,6.529,10.209h-5.628Zm19.738-4.764v4.764H268.467V29.868h12.524V34.6h-7.485v2.751h6.782v4.679h-6.782v2.921h7.626Zm15.91-10.181h-4.868V49.719h-5.039V34.775h-4.868V29.868h14.775v4.907Zm7.385,11.4,4.306-2.524a2.474,2.474,0,0,0,2.5,1.56A1.868,1.868,0,0,0,313.4,43.2V29.868h5.038V43.281c0,4.339-2.87,6.863-7.2,6.863C307.945,50.144,305.722,48.783,304.427,46.175Zm16.165-6.381A10.329,10.329,0,1,1,330.92,50.144,10.236,10.236,0,0,1,320.592,39.793Zm15.647,0a5.319,5.319,0,1,0-10.638,0A5.319,5.319,0,1,0,336.239,39.793Zm7.078,3.4V29.868h5.038V42.715c0,1.418.7,2.5,2.758,2.5s2.758-1.078,2.758-2.5V29.868h5.039V43.2c0,4.253-3.266,6.947-7.8,6.947S343.317,47.451,343.317,43.2Zm25.34,0.113h-1.8v6.409h-5.038V29.868h7.88a6.8,6.8,0,0,1,7.093,6.863,6.41,6.41,0,0,1-3.35,5.643l4.053,7.345h-5.4ZM366.856,39h2.786a2.04,2.04,0,0,0,2.111-2.211,2.1,2.1,0,0,0-2.111-2.241h-2.786V39Zm28.294-9.132V49.719h-3.883l-6.952-9.982v9.982h-5.038V29.868h3.912l6.952,9.982V29.868h5.009Zm14.307,16.987H402.9l-0.845,2.864H396.6l6.5-19.852h6.136l6.5,19.852H410.3Zm-1.294-4.367-2-6.75-1.97,6.75h3.969ZM429,44.814v4.906H417.18V29.868h5.039V44.814H429Z"/>
</svg>
